{
    "inputMessageMetadata": {},
    "outputMessageMetadata": {
        "messagePayload": {
            "connectorName": "Web_Service_Consumer",
            "typeId": "GetCitiesByCountryResponse"
        }
    },
    "id": "47136efb-d8f8-440b-92ce-984ef487e3d6",
    "version": "5.2.0.0"
}