{
    "inputMessageMetadata": {
        "messagePayload": {
            "connectorName": "#_custom_mule_metadata_type_#",
            "typeId": "CdataJson"
        }
    },
    "outputMessageMetadata": {
        "messagePayload": {
            "connectorName": "#_custom_mule_metadata_type_#",
            "typeId": "JsonResult"
        }
    },
    "id": "70b0211d-10c3-49f4-942e-cf98a8164445",
    "version": "5.2.0.0"
}