{
    "inputMessageMetadata": {},
    "outputMessageMetadata": {
        "messagePayload": {
            "connectorName": "#_custom_mule_metadata_type_#",
            "typeId": "JsonResult"
        }
    },
    "id": "9c244d35-2fae-4970-8393-522933878f57",
    "version": "5.2.0.0"
}