{
    "inputMessageMetadata": {},
    "outputMessageMetadata": {
        "messagePayload": {
            "connectorName": "Web_Service_Consumer",
            "typeId": "GetCitiesByCountryResponse"
        }
    },
    "id": "d865d3ce-df9d-4f79-9465-8e5c2e56bef6",
    "version": "5.2.0.0"
}